<?xml version="1.0" encoding="utf-8"?>
<!-- Generator: Adobe Illustrator 22.1.0, SVG Export Plug-In . SVG Version: 6.00 Build 0)  -->
<svg version="1.1" id="Layer_4" xmlns="http://www.w3.org/2000/svg" xmlns:xlink="http://www.w3.org/1999/xlink" x="0px" y="0px"
	 viewBox="0 0 1000 1000" style="enable-background:new 0 0 1000 1000;" xml:space="preserve">
<style type="text/css">
	.st0{fill:#1D5B25;}
	.st1{fill:url(#SVGID_1_);}
	.st2{fill:url(#SVGID_2_);}
	.st3{fill:#F9ED32;}
	.st4{fill:url(#SVGID_3_);}
	.st5{fill:#FFFFFF;}
	.st6{fill:url(#SVGID_4_);}
	.st7{fill:url(#SVGID_5_);}
	.st8{fill:url(#SVGID_6_);}
	.st9{fill:url(#SVGID_7_);}
	.st10{fill:url(#SVGID_8_);}
	.st11{fill:url(#SVGID_9_);}
	.st12{fill:url(#SVGID_10_);}
</style>
<g>
	<g>
		<polygon class="st0" points="489.2,452.1 486.7,454.2 595.8,321.7 601.1,316.2 		"/>
	</g>
	
		<linearGradient id="SVGID_1_" gradientUnits="userSpaceOnUse" x1="632.255" y1="484.2058" x2="490.3127" y2="542.4385" gradientTransform="matrix(0.974 0.2266 -0.2266 0.974 111.2663 -90.7254)">
		<stop  offset="0" style="stop-color:#0C2F15"/>
		<stop  offset="0.43" style="stop-color:#32B34A"/>
		<stop  offset="0.76" style="stop-color:#B8D442"/>
		<stop  offset="1" style="stop-color:#EEE82A"/>
	</linearGradient>
	<polygon class="st1" points="513.1,444.5 489.2,452.1 486.7,454.2 612,618.7 617.7,620.7 641.5,613.1 	"/>
	<g>
		
			<linearGradient id="SVGID_2_" gradientUnits="userSpaceOnUse" x1="491.127" y1="357.8029" x2="590.8037" y2="357.8029" gradientTransform="matrix(0.974 0.2266 -0.2266 0.974 111.2663 -90.7254)">
			<stop  offset="0" style="stop-color:#0C2F15"/>
			<stop  offset="0.43" style="stop-color:#32B34A"/>
			<stop  offset="0.76" style="stop-color:#B8D442"/>
			<stop  offset="1" style="stop-color:#EEE82A"/>
		</linearGradient>
		<polygon class="st2" points="513.1,444.5 489.2,452.1 601.1,316.2 625,308.6 		"/>
	</g>
	<g>
		<polygon class="st3" points="521.5,443.1 513.1,444.5 625,308.6 630.6,310.6 		"/>
	</g>
	<g>
		<polygon class="st3" points="646.8,607.6 641.5,613.1 513.1,444.5 521.5,443.1 		"/>
	</g>
	<g>
		
			<linearGradient id="SVGID_3_" gradientUnits="userSpaceOnUse" x1="718.7417" y1="362.7195" x2="520.9915" y2="493.7446" gradientTransform="matrix(0.974 0.2266 -0.2266 0.974 111.2663 -90.7254)">
			<stop  offset="0" style="stop-color:#0C2F15"/>
			<stop  offset="8.000000e-02" style="stop-color:#32B34A"/>
			<stop  offset="0.57" style="stop-color:#B8D442"/>
			<stop  offset="1" style="stop-color:#EEE82A"/>
		</linearGradient>
		<polygon class="st4" points="630.6,310.6 682.6,378.8 616.7,458.9 690,555.1 646.8,607.6 521.5,443.1 		"/>
		<path class="st5" d="M646.8,608.3l-0.3-0.5L521,443.1l0.2-0.3l109.4-132.9l52.5,69l-65.9,80l73.3,96.2L646.8,608.3z M522.1,443.1
			l124.7,163.7l42.6-51.7l-73.3-96.2l65.9-80l-51.4-67.5L522.1,443.1z"/>
	</g>
	<g>
		<polygon class="st0" points="396.9,164.3 393,168.1 437.6,114 442.9,108.5 		"/>
	</g>
	<g>
		<polygon class="st0" points="331,244.4 327.1,248.3 393,168.1 396.9,164.3 		"/>
	</g>
	<g>
		<g>
			
				<linearGradient id="SVGID_4_" gradientUnits="userSpaceOnUse" x1="191.1274" y1="375.6702" x2="289.9238" y2="375.6702" gradientTransform="matrix(0.974 0.2266 -0.2266 0.974 111.2663 -90.7254)">
				<stop  offset="9.463917e-02" style="stop-color:#2E3192"/>
				<stop  offset="0.1792" style="stop-color:#33388E"/>
				<stop  offset="0.3045" style="stop-color:#3F4C83"/>
				<stop  offset="0.4551" style="stop-color:#546D71"/>
				<stop  offset="0.6238" style="stop-color:#719A57"/>
				<stop  offset="0.766" style="stop-color:#8DC63F"/>
			</linearGradient>
			<polygon class="st6" points="192.4,412.8 189.9,414.9 327.1,248.3 331,244.4 			"/>
		</g>
		
			<linearGradient id="SVGID_5_" gradientUnits="userSpaceOnUse" x1="191.1274" y1="615.9038" x2="579.5576" y2="615.9038" gradientTransform="matrix(0.974 0.2266 -0.2266 0.974 111.2663 -90.7254)">
			<stop  offset="9.463917e-02" style="stop-color:#2E3192"/>
			<stop  offset="0.1792" style="stop-color:#33388E"/>
			<stop  offset="0.3045" style="stop-color:#3F4C83"/>
			<stop  offset="0.4551" style="stop-color:#546D71"/>
			<stop  offset="0.6238" style="stop-color:#719A57"/>
			<stop  offset="0.766" style="stop-color:#8DC63F"/>
		</linearGradient>
		<polygon class="st7" points="447.8,709.1 374.8,613.4 216.3,405.2 192.4,412.8 189.9,414.9 346.9,621 419.8,716.8 474,786.2 
			479.7,788.2 503.6,780.6 		"/>
		
			<linearGradient id="SVGID_6_" gradientUnits="userSpaceOnUse" x1="193.0859" y1="289.0638" x2="389.6426" y2="289.0638" gradientTransform="matrix(0.974 0.2266 -0.2266 0.974 111.2663 -90.7254)">
			<stop  offset="9.463917e-02" style="stop-color:#2E3192"/>
			<stop  offset="0.1792" style="stop-color:#33388E"/>
			<stop  offset="0.3045" style="stop-color:#3F4C83"/>
			<stop  offset="0.4551" style="stop-color:#546D71"/>
			<stop  offset="0.6238" style="stop-color:#719A57"/>
			<stop  offset="0.766" style="stop-color:#8DC63F"/>
		</linearGradient>
		<polygon class="st8" points="442.9,108.5 396.9,164.3 331,244.4 192.4,412.8 216.3,405.2 354.8,236.8 420.8,156.7 466.7,100.9 		
			"/>
		
			<linearGradient id="SVGID_7_" gradientUnits="userSpaceOnUse" x1="214.6123" y1="607.8848" x2="583.4326" y2="607.8848" gradientTransform="matrix(0.974 0.2266 -0.2266 0.974 111.2663 -90.7254)">
			<stop  offset="9.463917e-02" style="stop-color:#2E3192"/>
			<stop  offset="0.1792" style="stop-color:#33388E"/>
			<stop  offset="0.3045" style="stop-color:#3F4C83"/>
			<stop  offset="0.4551" style="stop-color:#546D71"/>
			<stop  offset="0.6238" style="stop-color:#719A57"/>
			<stop  offset="0.766" style="stop-color:#8DC63F"/>
		</linearGradient>
		<polygon class="st9" points="454.6,705.7 381.7,609.9 224.7,403.8 216.3,405.2 374.8,613.4 447.8,709.1 503.6,780.6 508.9,775.1 
					"/>
		<g>
			<g>
				
					<linearGradient id="SVGID_8_" gradientUnits="userSpaceOnUse" x1="222.5298" y1="430.0205" x2="659.707" y2="430.0205" gradientTransform="matrix(0.974 0.2266 -0.2266 0.974 111.2663 -90.7254)">
					<stop  offset="9.463917e-02" style="stop-color:#2E3192"/>
					<stop  offset="0.1792" style="stop-color:#33388E"/>
					<stop  offset="0.3045" style="stop-color:#3F4C83"/>
					<stop  offset="0.4551" style="stop-color:#546D71"/>
					<stop  offset="0.6238" style="stop-color:#719A57"/>
					<stop  offset="0.766" style="stop-color:#8DC63F"/>
				</linearGradient>
				<polygon class="st10" points="472.4,102.9 597.7,267.4 459.8,434.8 618,642.5 508.9,775.1 454.6,705.7 381.7,609.9 224.7,403.8 
					361.9,237.2 427.8,157 				"/>
				
					<linearGradient id="SVGID_9_" gradientUnits="userSpaceOnUse" x1="221.9619" y1="430.0171" x2="660.2764" y2="430.0171" gradientTransform="matrix(0.974 0.2266 -0.2266 0.974 111.2663 -90.7254)">
					<stop  offset="9.463917e-02" style="stop-color:#2E3192"/>
					<stop  offset="0.1792" style="stop-color:#33388E"/>
					<stop  offset="0.3045" style="stop-color:#3F4C83"/>
					<stop  offset="0.4551" style="stop-color:#546D71"/>
					<stop  offset="0.6238" style="stop-color:#719A57"/>
					<stop  offset="0.766" style="stop-color:#8DC63F"/>
				</linearGradient>
				<path class="st11" d="M508.8,775.9l-54.6-69.9l-72.9-95.7L224.1,403.8l0.2-0.3l248.1-301.3l125.8,165.2l-0.2,0.3L460.4,434.9
					l158.2,207.7L508.8,775.9z M225.3,403.8l156.8,205.8l72.9,95.7l53.9,69l108.6-131.9L459.2,434.8l0.2-0.3l137.6-167.2
					L472.4,103.7L225.3,403.8z"/>
			</g>
		</g>
		
			<linearGradient id="SVGID_10_" gradientUnits="userSpaceOnUse" x1="214.6123" y1="282.6567" x2="395.626" y2="282.6567" gradientTransform="matrix(0.974 0.2266 -0.2266 0.974 111.2663 -90.7254)">
			<stop  offset="9.463917e-02" style="stop-color:#2E3192"/>
			<stop  offset="0.1792" style="stop-color:#33388E"/>
			<stop  offset="0.3045" style="stop-color:#3F4C83"/>
			<stop  offset="0.4551" style="stop-color:#546D71"/>
			<stop  offset="0.6238" style="stop-color:#719A57"/>
			<stop  offset="0.766" style="stop-color:#8DC63F"/>
		</linearGradient>
		<polygon class="st12" points="466.7,100.9 420.8,156.7 354.8,236.8 216.3,405.2 224.7,403.8 361.9,237.2 427.8,157 472.4,102.9 		
			"/>
	</g>
</g>
</svg>
