<?xml version="1.0" encoding="utf-8"?>
<!-- Generator: Adobe Illustrator 22.1.0, SVG Export Plug-In . SVG Version: 6.00 Build 0)  -->
<svg version="1.1" id="Layer_4" xmlns="http://www.w3.org/2000/svg" xmlns:xlink="http://www.w3.org/1999/xlink" x="0px" y="0px"
	 viewBox="0 0 1000 1000" style="enable-background:new 0 0 1000 1000;" xml:space="preserve">
<style type="text/css">
	.st0{fill:#1D5B25;}
	.st1{fill:url(#SVGID_1_);}
	.st2{fill:url(#SVGID_2_);}
	.st3{fill:#F9ED32;}
	.st4{fill:url(#SVGID_3_);}
	.st5{fill:#FFFFFF;}
	.st6{fill:url(#SVGID_4_);}
	.st7{fill:url(#SVGID_5_);}
	.st8{fill:url(#SVGID_6_);}
	.st9{fill:url(#SVGID_7_);}
	.st10{fill:url(#SVGID_8_);}
	.st11{fill:url(#SVGID_9_);}
	.st12{fill:url(#SVGID_10_);}
</style>
<g>
	<g>
		<polygon class="st0" points="491.1,443 489.2,445.7 565.4,291.9 569.3,285.4 		"/>
	</g>
	<linearGradient id="SVGID_1_" gradientUnits="userSpaceOnUse" x1="632.255" y1="484.2058" x2="490.3127" y2="542.4385">
		<stop  offset="0" style="stop-color:#0C2F15"/>
		<stop  offset="0.43" style="stop-color:#32B34A"/>
		<stop  offset="0.76" style="stop-color:#B8D442"/>
		<stop  offset="1" style="stop-color:#EEE82A"/>
	</linearGradient>
	<polygon class="st1" points="512.7,430.2 491.1,443 489.2,445.7 648.4,577.5 654.4,578.2 675.9,565.3 	"/>
	<g>
		<linearGradient id="SVGID_2_" gradientUnits="userSpaceOnUse" x1="491.127" y1="357.8029" x2="590.8037" y2="357.8029">
			<stop  offset="0" style="stop-color:#0C2F15"/>
			<stop  offset="0.43" style="stop-color:#32B34A"/>
			<stop  offset="0.76" style="stop-color:#B8D442"/>
			<stop  offset="1" style="stop-color:#EEE82A"/>
		</linearGradient>
		<polygon class="st2" points="512.7,430.2 491.1,443 569.3,285.4 590.8,272.6 		"/>
	</g>
	<g>
		<polygon class="st3" points="520.6,427 512.7,430.2 590.8,272.6 596.8,273.2 		"/>
	</g>
	<g>
		<polygon class="st3" points="679.8,558.8 675.9,565.3 512.7,430.2 520.6,427 		"/>
	</g>
	<g>
		<linearGradient id="SVGID_3_" gradientUnits="userSpaceOnUse" x1="718.7417" y1="362.7195" x2="520.9915" y2="493.7446">
			<stop  offset="0" style="stop-color:#0C2F15"/>
			<stop  offset="8.000000e-02" style="stop-color:#32B34A"/>
			<stop  offset="0.57" style="stop-color:#B8D442"/>
			<stop  offset="1" style="stop-color:#EEE82A"/>
		</linearGradient>
		<polygon class="st4" points="596.8,273.2 662.8,327.9 616.8,420.8 710,497.9 679.8,558.8 520.6,427 		"/>
		<path class="st5" d="M680,559.5l-0.4-0.4L520,427.1l0.2-0.3l76.5-154.3l66.8,55.3l-46,92.9l93.2,77.1L680,559.5z M521.1,426.9
			l158.5,131.2l29.8-60l-93.2-77.1l46-92.9L596.9,274L521.1,426.9z"/>
	</g>
	<g>
		<polygon class="st0" points="336,183.7 333.1,188.3 364.2,125.5 368.1,118.9 		"/>
	</g>
	<g>
		<polygon class="st0" points="289.9,276.7 287,281.3 333.1,188.3 336,183.7 		"/>
	</g>
	<g>
		<g>
			<linearGradient id="SVGID_4_" gradientUnits="userSpaceOnUse" x1="191.1274" y1="375.6702" x2="289.9238" y2="375.6702">
				<stop  offset="9.463917e-02" style="stop-color:#2E3192"/>
				<stop  offset="0.1792" style="stop-color:#33388E"/>
				<stop  offset="0.3045" style="stop-color:#3F4C83"/>
				<stop  offset="0.4551" style="stop-color:#546D71"/>
				<stop  offset="0.6238" style="stop-color:#719A57"/>
				<stop  offset="0.766" style="stop-color:#8DC63F"/>
			</linearGradient>
			<polygon class="st6" points="193.1,472 191.1,474.7 287,281.3 289.9,276.7 			"/>
		</g>
		<linearGradient id="SVGID_5_" gradientUnits="userSpaceOnUse" x1="191.1274" y1="615.9038" x2="579.5576" y2="615.9038">
			<stop  offset="9.463917e-02" style="stop-color:#2E3192"/>
			<stop  offset="0.1792" style="stop-color:#33388E"/>
			<stop  offset="0.3045" style="stop-color:#3F4C83"/>
			<stop  offset="0.4551" style="stop-color:#546D71"/>
			<stop  offset="0.6238" style="stop-color:#719A57"/>
			<stop  offset="0.766" style="stop-color:#8DC63F"/>
		</linearGradient>
		<polygon class="st7" points="509,702.8 416.2,626.1 214.6,459.2 193.1,472 191.1,474.7 390.7,639.9 483.4,716.6 552,772 
			558,772.6 579.6,759.8 		"/>
		<linearGradient id="SVGID_6_" gradientUnits="userSpaceOnUse" x1="193.0859" y1="289.0638" x2="389.6426" y2="289.0638">
			<stop  offset="9.463917e-02" style="stop-color:#2E3192"/>
			<stop  offset="0.1792" style="stop-color:#33388E"/>
			<stop  offset="0.3045" style="stop-color:#3F4C83"/>
			<stop  offset="0.4551" style="stop-color:#546D71"/>
			<stop  offset="0.6238" style="stop-color:#719A57"/>
			<stop  offset="0.766" style="stop-color:#8DC63F"/>
		</linearGradient>
		<polygon class="st8" points="368.1,118.9 336,183.7 289.9,276.7 193.1,472 214.6,459.2 311.5,263.8 357.5,170.9 389.6,106.1 		"/>
		<linearGradient id="SVGID_7_" gradientUnits="userSpaceOnUse" x1="214.6123" y1="607.8848" x2="583.4326" y2="607.8848">
			<stop  offset="9.463917e-02" style="stop-color:#2E3192"/>
			<stop  offset="0.1792" style="stop-color:#33388E"/>
			<stop  offset="0.3045" style="stop-color:#3F4C83"/>
			<stop  offset="0.4551" style="stop-color:#546D71"/>
			<stop  offset="0.6238" style="stop-color:#719A57"/>
			<stop  offset="0.766" style="stop-color:#8DC63F"/>
		</linearGradient>
		<polygon class="st9" points="514.8,697.9 422.1,621.2 222.5,456 214.6,459.2 416.2,626.1 509,702.8 579.6,759.8 583.4,753.3 		"/>
		<g>
			<g>
				<linearGradient id="SVGID_8_" gradientUnits="userSpaceOnUse" x1="222.5298" y1="430.0205" x2="659.707" y2="430.0205">
					<stop  offset="9.463917e-02" style="stop-color:#2E3192"/>
					<stop  offset="0.1792" style="stop-color:#33388E"/>
					<stop  offset="0.3045" style="stop-color:#3F4C83"/>
					<stop  offset="0.4551" style="stop-color:#546D71"/>
					<stop  offset="0.6238" style="stop-color:#719A57"/>
					<stop  offset="0.766" style="stop-color:#8DC63F"/>
				</linearGradient>
				<polygon class="st10" points="395.6,106.8 554.9,238.6 458.6,432.9 659.7,599.4 583.4,753.3 514.8,697.9 422.1,621.2 222.5,456 
					318.4,262.6 364.5,169.6 				"/>
				<linearGradient id="SVGID_9_" gradientUnits="userSpaceOnUse" x1="221.9619" y1="430.0171" x2="660.2764" y2="430.0171">
					<stop  offset="9.463917e-02" style="stop-color:#2E3192"/>
					<stop  offset="0.1792" style="stop-color:#33388E"/>
					<stop  offset="0.3045" style="stop-color:#3F4C83"/>
					<stop  offset="0.4551" style="stop-color:#546D71"/>
					<stop  offset="0.6238" style="stop-color:#719A57"/>
					<stop  offset="0.766" style="stop-color:#8DC63F"/>
				</linearGradient>
				<path class="st11" d="M583.6,754l-69-55.7l-92.7-76.7L222,456.1l0.2-0.3l173.4-349.7l160,132.4l-0.2,0.3l-96.2,194l201.2,166.5
					L583.6,754z M223.1,455.9l199.3,165l92.7,76.7l68.1,55l75.9-153L458,433.1l0.2-0.3l96.2-194L395.8,107.5L223.1,455.9z"/>
			</g>
		</g>
		<linearGradient id="SVGID_10_" gradientUnits="userSpaceOnUse" x1="214.6123" y1="282.6567" x2="395.626" y2="282.6567">
			<stop  offset="9.463917e-02" style="stop-color:#2E3192"/>
			<stop  offset="0.1792" style="stop-color:#33388E"/>
			<stop  offset="0.3045" style="stop-color:#3F4C83"/>
			<stop  offset="0.4551" style="stop-color:#546D71"/>
			<stop  offset="0.6238" style="stop-color:#719A57"/>
			<stop  offset="0.766" style="stop-color:#8DC63F"/>
		</linearGradient>
		<polygon class="st12" points="389.6,106.1 357.5,170.9 311.5,263.8 214.6,459.2 222.5,456 318.4,262.6 364.5,169.6 395.6,106.8 		
			"/>
	</g>
</g>
</svg>
